<?xml version="1.0" encoding="UTF-8" standalone="no"?>
<!-- Created with Inkscape (http://www.inkscape.org/) -->

<svg
   xmlns:osb="http://www.openswatchbook.org/uri/2009/osb"
   xmlns:dc="http://purl.org/dc/elements/1.1/"
   xmlns:cc="http://creativecommons.org/ns#"
   xmlns:rdf="http://www.w3.org/1999/02/22-rdf-syntax-ns#"
   xmlns:svg="http://www.w3.org/2000/svg"
   xmlns="http://www.w3.org/2000/svg"
   xmlns:xlink="http://www.w3.org/1999/xlink"
   xmlns:sodipodi="http://sodipodi.sourceforge.net/DTD/sodipodi-0.dtd"
   xmlns:inkscape="http://www.inkscape.org/namespaces/inkscape"
   width="128"
   height="128"
   viewBox="0 0 33.866666 33.866668"
   version="1.1"
   id="svg8"
   inkscape:version="0.92.4 5da689c313, 2019-01-14"
   sodipodi:docname="Logo_v01.svg"
   inkscape:export-filename="/media/thierry/ProjectDiskN/Thierry/Qt/Renegade/Logo_v01.png"
   inkscape:export-xdpi="36.000004"
   inkscape:export-ydpi="36.000004">
  <defs
     id="defs2">
    <linearGradient
       id="linearGradient6072"
       osb:paint="solid">
      <stop
         style="stop-color:#000000;stop-opacity:1;"
         offset="0"
         id="stop6070" />
    </linearGradient>
    <linearGradient
       inkscape:collect="always"
       id="linearGradient4595">
      <stop
         style="stop-color:#000000;stop-opacity:0"
         offset="0"
         id="stop4591" />
      <stop
         style="stop-color:#000000;stop-opacity:0"
         offset="1"
         id="stop4593" />
    </linearGradient>
    <linearGradient
       inkscape:collect="always"
       id="linearGradient4587">
      <stop
         style="stop-color:#000000;stop-opacity:1;"
         offset="0"
         id="stop4583" />
      <stop
         style="stop-color:#000000;stop-opacity:0"
         offset="1"
         id="stop4585" />
    </linearGradient>
    <linearGradient
       inkscape:collect="always"
       xlink:href="#linearGradient4587"
       id="linearGradient4589"
       x1="7.9387064"
       y1="279.41058"
       x2="32.470669"
       y2="289.16592"
       gradientUnits="userSpaceOnUse" />
    <linearGradient
       inkscape:collect="always"
       xlink:href="#linearGradient4595"
       id="linearGradient4597"
       x1="7.9387064"
       y1="272.52838"
       x2="32.470669"
       y2="289.16592"
       gradientUnits="userSpaceOnUse" />
    <filter
       inkscape:collect="always"
       style="color-interpolation-filters:sRGB"
       id="filter4607"
       x="-0.24010569"
       width="1.4802114"
       y="-1.2570949"
       height="3.5141898">
      <feGaussianBlur
         inkscape:collect="always"
         stdDeviation="1.946182"
         id="feGaussianBlur4609" />
    </filter>
    <filter
       inkscape:collect="always"
       style="color-interpolation-filters:sRGB"
       id="filter7128"
       x="-0.10522016"
       width="1.2104403"
       y="-0.11685704"
       height="1.2337141">
      <feGaussianBlur
         inkscape:collect="always"
         stdDeviation="0.92755278"
         id="feGaussianBlur7130" />
    </filter>
    <filter
       inkscape:collect="always"
       style="color-interpolation-filters:sRGB"
       id="filter7132"
       x="-0.10517134"
       width="1.2103427"
       y="-0.11685704"
       height="1.2337141">
      <feGaussianBlur
         inkscape:collect="always"
         stdDeviation="0.92755278"
         id="feGaussianBlur7134" />
    </filter>
    <filter
       inkscape:collect="always"
       style="color-interpolation-filters:sRGB"
       id="filter8608"
       x="-0.12807252"
       width="1.256145"
       y="-0.091587544"
       height="1.1831751">
      <feGaussianBlur
         inkscape:collect="always"
         stdDeviation="1.130852"
         id="feGaussianBlur8610" />
    </filter>
  </defs>
  <sodipodi:namedview
     id="base"
     pagecolor="#ffffff"
     bordercolor="#666666"
     borderopacity="1.0"
     inkscape:pageopacity="0.0"
     inkscape:pageshadow="2"
     inkscape:zoom="1.4"
     inkscape:cx="-9.9764827"
     inkscape:cy="39.028151"
     inkscape:document-units="mm"
     inkscape:current-layer="layer1"
     showgrid="true"
     units="px"
     objecttolerance="8"
     inkscape:window-width="1920"
     inkscape:window-height="1053"
     inkscape:window-x="1920"
     inkscape:window-y="27"
     inkscape:window-maximized="1"
     inkscape:snap-bbox="true"
     inkscape:snap-global="true">
    <inkscape:grid
       type="xygrid"
       id="grid10"
       spacingx="2.1166667"
       spacingy="2.1166667" />
  </sodipodi:namedview>
  <metadata
     id="metadata5">
    <rdf:RDF>
      <cc:Work
         rdf:about="">
        <dc:format>image/svg+xml</dc:format>
        <dc:type
           rdf:resource="http://purl.org/dc/dcmitype/StillImage" />
        <dc:title></dc:title>
      </cc:Work>
    </rdf:RDF>
  </metadata>
  <g
     inkscape:label="Layer 1"
     inkscape:groupmode="layer"
     id="layer1"
     transform="translate(0,-263.13332)">
    <g
       id="g7138"
       style="opacity:0.69800002;filter:url(#filter8608)">
      <path
         style="opacity:0.40549831;fill:#030000;fill-opacity:1;stroke-width:0.2647481;filter:url(#filter7128)"
         d="m 5.2916669,277.94999 a 20.133392,19.049998 0 0 0 -1.0237102,0.0341 v 8.43411 a 12.643304,10.649479 0 0 1 0.056844,-0.002 12.643304,10.649479 0 0 1 12.6405703,10.58379 h 8.459432 a 20.133392,19.049998 0 0 0 -20.1331361,-19.05 z"
         id="path6484"
         inkscape:connector-curvature="0" />
      <path
         style="opacity:0.40549831;fill:#030000;fill-opacity:1;stroke:none;stroke-width:0.26458332;stroke-opacity:1;filter:url(#filter7132)"
         d="m 4.2333334,267.36665 v 8.46667 H 4.3041301 12.7 a 4.233333,1.0583332 0 0 1 4.233333,1.05833 A 4.233333,1.0583332 0 0 1 12.7,277.94999 H 8.4666667 4.2333334 v 8.46666 H 8.4666667 12.7 h 2.100647 0.01602 A 10.583332,9.5249994 0 0 0 25.4,276.89165 10.583332,9.5249994 0 0 0 14.816667,267.36665 H 12.7 10.583333 Z"
         id="path6486"
         inkscape:connector-curvature="0" />
    </g>
    <path
       style="fill:#aa0000;stroke-width:0.2647481"
       d="m 7.4083334,275.83332 a 20.133392,19.049998 0 0 0 -1.0237102,0.0341 v 8.43411 a 12.643304,10.649479 0 0 1 0.056844,-0.002 12.643304,10.649479 0 0 1 12.6405708,10.58379 h 8.459432 a 20.133392,19.049998 0 0 0 -20.1331366,-19.05 z"
       id="path3809"
       inkscape:connector-curvature="0" />
    <path
       style="fill:url(#linearGradient4589);fill-opacity:1;stroke:url(#linearGradient4597);stroke-width:0.26499999;stroke-linecap:butt;stroke-linejoin:miter;stroke-miterlimit:4;stroke-dasharray:none;stroke-opacity:1;filter:url(#filter4607)"
       d="m 6.3499999,284.29999 14.8166671,2.11666 H 25.4 l -2.615273,-3.71558 -16.8379801,1.60361 v 0"
       id="path3766"
       inkscape:connector-curvature="0" />
    <path
       style="fill:#aa0000;fill-opacity:1;stroke:none;stroke-width:0.99999994;stroke-opacity:1"
       d="M 24,8 V 40 H 24.267578 56 a 15.999999,3.9999997 0 0 1 16,4 15.999999,3.9999997 0 0 1 -16,4 H 40 24 V 80 H 40 56 63.939453 64 A 39.999997,35.999998 0 0 0 104,44 39.999997,35.999998 0 0 0 64,8 h -8 -8 z"
       transform="matrix(0.26458333,0,0,0.26458333,0,263.13332)"
       id="rect3791"
       inkscape:connector-curvature="0" />
    <rect
       style="opacity:0;fill:#aa0000;fill-opacity:1;stroke:none;stroke-width:0.26499999;stroke-miterlimit:4;stroke-dasharray:none;stroke-opacity:1"
       id="rect6078"
       width="10.583333"
       height="6.3499999"
       x="10.583333"
       y="263.13333" />
    <rect
       style="opacity:0;fill:#aa0000;fill-opacity:1;stroke:none;stroke-width:0.26499999;stroke-miterlimit:4;stroke-dasharray:none;stroke-opacity:1"
       id="rect6080"
       width="27.516666"
       height="8.4666662"
       x="8.4666662"
       y="265.25" />
    <rect
       style="opacity:0;fill:#aa0000;fill-opacity:1;stroke:none;stroke-width:0.26499999;stroke-miterlimit:4;stroke-dasharray:none;stroke-opacity:1"
       id="rect6085"
       width="4.2333331"
       height="4.2333331"
       x="23.283333"
       y="263.13333" />
    <rect
       style="opacity:0;fill:#aa0000;fill-opacity:1;stroke:none;stroke-width:0.26499999;stroke-miterlimit:4;stroke-dasharray:none;stroke-opacity:1"
       id="rect6087"
       width="6.3499999"
       height="6.3499999"
       x="16.933332"
       y="258.89999" />
    <rect
       style="opacity:0;fill:#aa0000;fill-opacity:1;stroke:none;stroke-width:0.26499999;stroke-miterlimit:4;stroke-dasharray:none;stroke-opacity:1"
       id="rect6097"
       width="4.2333331"
       height="2.1166666"
       x="19.049999"
       y="261.01666" />
    <rect
       style="opacity:0;fill:#aa0000;fill-opacity:1;stroke:none;stroke-width:0.26499999;stroke-miterlimit:4;stroke-dasharray:none;stroke-opacity:1"
       id="rect6099"
       width="4.2333331"
       height="4.2333331"
       x="10.583333"
       y="256.78333" />
  </g>
</svg>
